Tidy your summarised result object
…
    age
NA
50.3
20.7

Example

Let’s see a simple example with some toy data:

library(visOmopResults)
result <- mockSummarisedResult()
result |>
  tidy()
#> # A tibble: 72 × 13
#>    cdm_name cohort_name age_group sex     variable_name   variable_level   count
#>    <chr>    <chr>       <chr>     <chr>   <chr>           <chr>            <int>
#>  1 mock     cohort1     overall   overall number subjects <NA>           6423189
#>  2 mock     cohort1     <40       Male    number subjects <NA>           9686715
#>  3 mock     cohort1     >=40      Male    number subjects <NA>           5832513
#>  4 mock     cohort1     <40       Female  number subjects <NA>           2898219
#>  5 mock     cohort1     >=40      Female  number subjects <NA>           2626298
#>  6 mock     cohort1     overall   Male    number subjects <NA>            171560
#>  7 mock     cohort1     overall   Female  number subjects <NA>           2643176
#>  8 mock     cohort1     <40       overall number subjects <NA>           5707861
#>  9 mock     cohort1     >=40      overall number subjects <NA>           8368229
#> 10 mock     cohort2     overall   overall number subjects <NA>           6595753
#> # ℹ 62 more rows
#> # ℹ 6 more variables: mean <dbl>, sd <dbl>, percentage <dbl>,
#> #   result_type <chr>, package_name <chr>, package_version <chr>
…
splitGroup() only splits the pair
group_name-group_level columns.

splitStrata() only splits the pair
strata_name-strata_level columns.

splitAdditional() only splits the pair
additional_name-additional_level columns.

There is also the function: - splitAll() that splits any
pair x_name-x_level that is found on the data.

splitAll(result)
#> # A tibble: 126 × 10
#>    result_id cdm_name cohort_name age_group sex     variable_name variable_level
#>        <int> <chr>    <chr>       <chr>     <chr>   <chr>         <chr>         
#>  1         1 mock     cohort1     overall   overall number subje… <NA>          
#>  2         1 mock     cohort1     <40       Male    number subje… <NA>          
#>  3         1 mock     cohort1     >=40      Male    number subje… <NA>          
#>  4         1 mock     cohort1     <40       Female  number subje… <NA>          
#>  5         1 mock     cohort1     >=40      Female  number subje… <NA>          
#>  6         1 mock     cohort1     overall   Male    number subje… <NA>          
#>  7         1 mock     cohort1     overall   Female  number subje… <NA>          
#>  8         1 mock     cohort1     <40       overall number subje… <NA>          
#>  9         1 mock     cohort1     >=40      overall number subje… <NA>          
#> 10         1 mock     cohort2     overall   overall number subje… <NA>          
#> # ℹ 116 more rows
#> # ℹ 3 more variables: estimate_name <chr>, estimate_type <chr>,
#> #   estimate_value <chr>
…
Add settings

addSettings() is used to add the settings that we want
as new columns to our <summarised_result> object.

The settingsColumns argument is used to choose which are
the settings we want to add.

addSettings(
  result, 
  settingsColumns = "result_type"
)
#> # A tibble: 126 × 14
#>    result_id cdm_name group_name  group_level strata_name       strata_level   
#>        <int> <chr>    <chr>       <chr>       <chr>             <chr>          
#>  1         1 mock     cohort_name cohort1     overall           overall        
#>  2         1 mock     cohort_name cohort1     age_group &&& sex <40 &&& Male   
#>  3         1 mock     cohort_name cohort1     age_group &&& sex >=40 &&& Male  
#>  4         1 mock     cohort_name cohort1     age_group &&& sex <40 &&& Female 
#>  5         1 mock     cohort_name cohort1     age_group &&& sex >=40 &&& Female
#>  6         1 mock     cohort_name cohort1     sex               Male           
#>  7         1 mock     cohort_name cohort1     sex               Female         
#>  8         1 mock     cohort_name cohort1     age_group         <40            
#>  9         1 mock     cohort_name cohort1     age_group         >=40           
#> 10         1 mock     cohort_name cohort2     overall           overall        
#> # ℹ 116 more rows
#> # ℹ 8 more variables: variable_name <chr>, variable_level <chr>,
#> #   estimate_name <chr>, estimate_type <chr>, estimate_value <chr>,
#> #   additional_name <chr>, additional_level <chr>, result_type <chr>
